Starting Nmap 7.92 ( https://nmap.org ) at 2021-08-18 16:28 -03
NSE: Loaded 46 scripts for scanning.
NSE: Script Pre-scanning.
Initiating NSE at 16:28
Completed NSE at 16:28, 0.00s elapsed
Initiating NSE at 16:28
Completed NSE at 16:28, 0.00s elapsed
Initiating Ping Scan at 16:28
Scanning 10.10.10.242 [4 ports]
Completed Ping Scan at 16:28, 0.36s elapsed (1 total hosts)
Initiating Parallel DNS resolution of 1 host. at 16:28
Completed Parallel DNS resolution of 1 host. at 16:28, 0.01s elapsed
Initiating SYN Stealth Scan at 16:28
Scanning 10.10.10.242 [65535 ports]
Discovered open port 80/tcp on 10.10.10.242
Discovered open port 22/tcp on 10.10.10.242
Increasing send delay for 10.10.10.242 from 0 to 5 due to max_successful_tryno increase to 4
Increasing send delay for 10.10.10.242 from 5 to 10 due to 11 out of 14 dropped probes since last increase.
Increasing send delay for 10.10.10.242 from 10 to 20 due to 11 out of 18 dropped probes since last increase.
Increasing send delay for 10.10.10.242 from 20 to 40 due to 11 out of 19 dropped probes since last increase.
Increasing send delay for 10.10.10.242 from 40 to 80 due to 11 out of 19 dropped probes since last increase.
Increasing send delay for 10.10.10.242 from 80 to 160 due to 11 out of 16 dropped probes since last increase.
Increasing send delay for 10.10.10.242 from 160 to 320 due to 11 out of 13 dropped probes since last increase.
Increasing send delay for 10.10.10.242 from 320 to 640 due to 11 out of 12 dropped probes since last increase.
Increasing send delay for 10.10.10.242 from 640 to 1000 due to 11 out of 11 dropped probes since last increase.
SYN Stealth Scan Timing: About 3.98% done; ETC: 16:41 (0:12:29 remaining)
SYN Stealth Scan Timing: About 4.02% done; ETC: 16:53 (0:24:16 remaining)
SYN Stealth Scan Timing: About 4.07% done; ETC: 17:05 (0:35:46 remaining)
SYN Stealth Scan Timing: About 4.11% done; ETC: 17:17 (0:47:00 remaining)
SYN Stealth Scan Timing: About 4.16% done; ETC: 17:28 (0:57:59 remaining)
SYN Stealth Scan Timing: About 4.20% done; ETC: 17:40 (1:08:45 remaining)
SYN Stealth Scan Timing: About 4.25% done; ETC: 17:51 (1:19:14 remaining)
SYN Stealth Scan Timing: About 4.30% done; ETC: 18:01 (1:29:30 remaining)
SYN Stealth Scan Timing: About 4.34% done; ETC: 18:12 (1:39:32 remaining)
SYN Stealth Scan Timing: About 4.39% done; ETC: 18:22 (1:49:20 remaining)
SYN Stealth Scan Timing: About 4.43% done; ETC: 18:32 (1:58:56 remaining)
SYN Stealth Scan Timing: About 4.48% done; ETC: 18:42 (2:08:20 remaining)
SYN Stealth Scan Timing: About 4.52% done; ETC: 18:52 (2:17:31 remaining)
SYN Stealth Scan Timing: About 4.57% done; ETC: 19:01 (2:26:31 remaining)
SYN Stealth Scan Timing: About 4.62% done; ETC: 19:11 (2:35:20 remaining)
SYN Stealth Scan Timing: About 4.66% done; ETC: 19:20 (2:43:57 remaining)
SYN Stealth Scan Timing: About 4.71% done; ETC: 19:30 (2:53:14 remaining)
SYN Stealth Scan Timing: About 4.77% done; ETC: 19:40 (3:03:08 remaining)
SYN Stealth Scan Timing: About 4.82% done; ETC: 19:50 (3:12:47 remaining)
SYN Stealth Scan Timing: About 4.88% done; ETC: 20:01 (3:22:59 remaining)
SYN Stealth Scan Timing: About 4.95% done; ETC: 20:13 (3:33:40 remaining)
SYN Stealth Scan Timing: About 5.02% done; ETC: 20:25 (3:45:32 remaining)
SYN Stealth Scan Timing: About 5.10% done; ETC: 20:38 (3:57:44 remaining)
SYN Stealth Scan Timing: About 5.18% done; ETC: 20:52 (4:10:55 remaining)
SYN Stealth Scan Timing: About 5.27% done; ETC: 21:07 (4:24:17 remaining)
SYN Stealth Scan Timing: About 5.38% done; ETC: 21:22 (4:38:25 remaining)
SYN Stealth Scan Timing: About 5.49% done; ETC: 21:38 (4:53:12 remaining)
SYN Stealth Scan Timing: About 5.61% done; ETC: 21:55 (5:09:05 remaining)
SYN Stealth Scan Timing: About 5.75% done; ETC: 22:14 (5:25:56 remaining)
SYN Stealth Scan Timing: About 5.90% done; ETC: 22:33 (5:43:25 remaining)
SYN Stealth Scan Timing: About 6.07% done; ETC: 22:53 (6:01:52 remaining)
SYN Stealth Scan Timing: About 6.26% done; ETC: 23:15 (6:21:30 remaining)
SYN Stealth Scan Timing: About 6.47% done; ETC: 23:38 (6:41:56 remaining)
SYN Stealth Scan Timing: About 6.72% done; ETC: 00:02 (7:03:37 remaining)
SYN Stealth Scan Timing: About 7.00% done; ETC: 00:28 (7:26:22 remaining)
SYN Stealth Scan Timing: About 7.33% done; ETC: 00:55 (7:50:23 remaining)
Stats: 0:37:14 elapsed; 0 hosts completed (1 up), 1 undergoing SYN Stealth Scan
SYN Stealth Scan Timing: About 7.33% done; ETC: 00:56 (7:50:36 remaining)
SYN Stealth Scan Timing: About 7.73% done; ETC: 01:25 (8:16:03 remaining)
SYN Stealth Scan Timing: About 8.20% done; ETC: 01:58 (8:43:02 remaining)
SYN Stealth Scan Timing: About 8.80% done; ETC: 02:33 (9:11:41 remaining)
SYN Stealth Scan Timing: About 9.55% done; ETC: 03:11 (9:42:04 remaining)
SYN Stealth Scan Timing: About 10.57% done; ETC: 03:55 (10:14:16 remaining)
SYN Stealth Scan Timing: About 12.08% done; ETC: 04:46 (10:48:38 remaining)
SYN Stealth Scan Timing: About 14.97% done; ETC: 05:54 (11:25:34 remaining)
SYN Stealth Scan Timing: About 33.00% done; ETC: 08:31 (10:45:15 remaining)
SYN Stealth Scan Timing: About 39.35% done; ETC: 08:52 (9:57:06 remaining)
SYN Stealth Scan Timing: About 45.93% done; ETC: 09:21 (9:07:51 remaining)
SYN Stealth Scan Timing: About 51.34% done; ETC: 09:29 (8:17:11 remaining)
