Target: http://FUZZ.horizontall.htb/
Total requests: 114441
==================================================================
ID    Response   Lines      Word         Chars          Request    
==================================================================

Total time: 0
Processed Requests: 114441
Filtered Requests: 114441
Requests/sec.: 0
